<?xml version="1.0" encoding="UTF-8" standalone="no"?>
<!DOCTYPE svg PUBLIC "-//W3C//DTD SVG 1.1//EN"
 "http://www.w3.org/Graphics/SVG/1.1/DTD/svg11.dtd">
<!-- Generated by graphviz version 2.47.3 (20210619.1520)
 -->
<!-- Title: dependencies Pages: 1 -->
<svg width="739pt" height="247pt"
 viewBox="0.00 0.00 739.00 246.80" xmlns="http://www.w3.org/2000/svg" xmlns:xlink="http://www.w3.org/1999/xlink">
<g id="graph0" class="graph" transform="scale(1 1) rotate(0) translate(4 242.8)">
<title>dependencies</title>
<polygon fill="white" stroke="transparent" points="-4,4 -4,-242.8 735,-242.8 735,4 -4,4"/>
<text text-anchor="middle" x="365.5" y="-8.2" font-family="sans-serif" font-size="14.00">dependencies</text>
<g id="clust1" class="cluster">
<title>cluster_AppModule</title>
<polygon fill="none" stroke="black" stroke-dasharray="1,5" points="8,-32.8 8,-230.8 723,-230.8 723,-32.8 8,-32.8"/>
</g>
<g id="clust4" class="cluster">
<title>cluster_AppModule_imports</title>
<polygon fill="none" stroke="black" points="146,-40.8 146,-92.8 715,-92.8 715,-40.8 146,-40.8"/>
</g>
<g id="clust2" class="cluster">
<title>cluster_AppModule_declarations</title>
<polygon fill="none" stroke="black" points="16,-40.8 16,-92.8 138,-92.8 138,-40.8 16,-40.8"/>
</g>
<g id="clust6" class="cluster">
<title>cluster_AppModule_bootstrap</title>
<polygon fill="none" stroke="black" points="290,-170.8 290,-222.8 414,-222.8 414,-170.8 290,-170.8"/>
</g>
<!-- AppComponent -->
<g id="node1" class="node">
<title>AppComponent</title>
<polygon fill="#ffffb3" stroke="black" points="129.94,-84.8 24.06,-84.8 24.06,-48.8 129.94,-48.8 129.94,-84.8"/>
<text text-anchor="middle" x="77" y="-62.6" font-family="Times,serif" font-size="14.00">AppComponent</text>
</g>
<!-- AppModule -->
<g id="node2" class="node">
<title>AppModule</title>
<polygon fill="#8dd3c7" stroke="black" points="393.66,-149.8 390.66,-153.8 369.66,-153.8 366.66,-149.8 310.34,-149.8 310.34,-113.8 393.66,-113.8 393.66,-149.8"/>
<text text-anchor="middle" x="352" y="-127.6" font-family="Times,serif" font-size="14.00">AppModule</text>
</g>
<!-- AppComponent&#45;&gt;AppModule -->
<g id="edge1" class="edge">
<title>AppComponent&#45;&gt;AppModule</title>
<path fill="none" stroke="black" d="M77,-85.08C77,-106.12 77,-137.8 77,-137.8 77,-137.8 300.23,-137.8 300.23,-137.8"/>
<polygon fill="black" stroke="black" points="300.23,-141.3 310.23,-137.8 300.23,-134.3 300.23,-141.3"/>
</g>
<!-- AppComponent  -->
<g id="node8" class="node">
<title>AppComponent </title>
<polygon fill="#80b1d3" stroke="black" points="406.44,-214.8 297.56,-214.8 297.56,-178.8 406.44,-178.8 406.44,-214.8"/>
<text text-anchor="middle" x="352" y="-192.6" font-family="Times,serif" font-size="14.00">AppComponent </text>
</g>
<!-- AppModule&#45;&gt;AppComponent  -->
<g id="edge7" class="edge">
<title>AppModule&#45;&gt;AppComponent </title>
<path fill="none" stroke="black" stroke-dasharray="1,5" d="M352,-149.91C352,-149.91 352,-168.79 352,-168.79"/>
<polygon fill="black" stroke="black" points="348.5,-168.79 352,-178.79 355.5,-168.79 348.5,-168.79"/>
</g>
<!-- AppRoutingModule -->
<g id="node3" class="node">
<title>AppRoutingModule</title>
<polygon fill="#8dd3c7" stroke="black" points="707.27,-84.8 704.27,-88.8 683.27,-88.8 680.27,-84.8 578.73,-84.8 578.73,-48.8 707.27,-48.8 707.27,-84.8"/>
<text text-anchor="middle" x="643" y="-62.6" font-family="Times,serif" font-size="14.00">AppRoutingModule</text>
</g>
<!-- AppRoutingModule&#45;&gt;AppModule -->
<g id="edge2" class="edge">
<title>AppRoutingModule&#45;&gt;AppModule</title>
<path fill="none" stroke="black" d="M643,-85.08C643,-106.12 643,-137.8 643,-137.8 643,-137.8 403.69,-137.8 403.69,-137.8"/>
<polygon fill="black" stroke="black" points="403.69,-134.3 393.69,-137.8 403.69,-141.3 403.69,-134.3"/>
</g>
<!-- CoreModule -->
<g id="node4" class="node">
<title>CoreModule</title>
<polygon fill="#8dd3c7" stroke="black" points="560.26,-84.8 557.26,-88.8 536.26,-88.8 533.26,-84.8 473.74,-84.8 473.74,-48.8 560.26,-48.8 560.26,-84.8"/>
<text text-anchor="middle" x="517" y="-62.6" font-family="Times,serif" font-size="14.00">CoreModule</text>
</g>
<!-- CoreModule&#45;&gt;AppModule -->
<g id="edge3" class="edge">
<title>CoreModule&#45;&gt;AppModule</title>
<path fill="none" stroke="black" d="M517,-84.82C517,-102.17 517,-125.8 517,-125.8 517,-125.8 404.06,-125.8 404.06,-125.8"/>
<polygon fill="black" stroke="black" points="404.06,-122.3 394.06,-125.8 404.06,-129.3 404.06,-122.3"/>
</g>
<!-- LoginModule -->
<g id="node5" class="node">
<title>LoginModule</title>
<polygon fill="#8dd3c7" stroke="black" points="455.49,-84.8 452.49,-88.8 431.49,-88.8 428.49,-84.8 362.51,-84.8 362.51,-48.8 455.49,-48.8 455.49,-84.8"/>
<text text-anchor="middle" x="409" y="-62.6" font-family="Times,serif" font-size="14.00">LoginModule</text>
</g>
<!-- LoginModule&#45;&gt;AppModule -->
<g id="edge4" class="edge">
<title>LoginModule&#45;&gt;AppModule</title>
<path fill="none" stroke="black" d="M378.17,-84.91C378.17,-84.91 378.17,-103.79 378.17,-103.79"/>
<polygon fill="black" stroke="black" points="374.67,-103.79 378.17,-113.79 381.67,-103.79 374.67,-103.79"/>
</g>
<!-- SharedModule -->
<g id="node6" class="node">
<title>SharedModule</title>
<polygon fill="#8dd3c7" stroke="black" points="344.42,-84.8 341.42,-88.8 320.42,-88.8 317.42,-84.8 245.58,-84.8 245.58,-48.8 344.42,-48.8 344.42,-84.8"/>
<text text-anchor="middle" x="295" y="-62.6" font-family="Times,serif" font-size="14.00">SharedModule</text>
</g>
<!-- SharedModule&#45;&gt;AppModule -->
<g id="edge5" class="edge">
<title>SharedModule&#45;&gt;AppModule</title>
<path fill="none" stroke="black" d="M327.19,-84.91C327.19,-84.91 327.19,-103.79 327.19,-103.79"/>
<polygon fill="black" stroke="black" points="323.69,-103.79 327.19,-113.79 330.69,-103.79 323.69,-103.79"/>
</g>
<!-- UiModule -->
<g id="node7" class="node">
<title>UiModule</title>
<polygon fill="#8dd3c7" stroke="black" points="227.55,-84.8 224.55,-88.8 203.55,-88.8 200.55,-84.8 154.45,-84.8 154.45,-48.8 227.55,-48.8 227.55,-84.8"/>
<text text-anchor="middle" x="191" y="-62.6" font-family="Times,serif" font-size="14.00">UiModule</text>
</g>
<!-- UiModule&#45;&gt;AppModule -->
<g id="edge6" class="edge">
<title>UiModule&#45;&gt;AppModule</title>
<path fill="none" stroke="black" d="M191,-84.82C191,-102.17 191,-125.8 191,-125.8 191,-125.8 300.12,-125.8 300.12,-125.8"/>
<polygon fill="black" stroke="black" points="300.12,-129.3 310.12,-125.8 300.12,-122.3 300.12,-129.3"/>
</g>
</g>
</svg>
